Analise Musicas Spotify
…
III - As Top 10 dos Estilosos

generos<-resp01 %>% select (genero) %>% distinct() %>% unlist
artistas_10_mais <- resp02 %>% arrange(-qtd_toca)
artistas_10_mais <- artistas_10_mais['artista'] %>% distinct() %>% unlist
tocadas_musica_genero_pais_continente

## # A tibble: 2,474,727 x 12
##    faixa artista data_execucao region genero popularidade danceability
##    <chr> <chr>   <date>        <chr>  <chr>         <dbl>        <dbl>
##  1 Regg… CNCO    2017-01-01    EC     Regga…           77        0.761
##  2 Otra… Zion &… 2017-01-01    EC     Regga…           76        0.832
##  3 Vent… Ricky … 2017-01-01    EC     Pop              75        0.663
##  4 Safa… J Balv… 2017-01-01    EC     Regga…           73        0.689
##  5 La B… Carlos… 2017-01-01    EC     Pop              74        0.745
##  6 Anda… Chino … 2017-01-01    EC     Regga…           74        0.676
##  7 Trai… Sebast… 2017-01-01    EC     Pop              71        0.783
##  8 Shak… Daddy … 2017-01-01    EC     Regga…           70        0.899
##  9 Vaca… Wisin   2017-01-01    EC     Regga…           71        0.777
## 10 Dile… Ozuna   2017-01-01    EC     Regga…           75        0.773
## # … with 2,474,717 more rows, and 5 more variables: energy <dbl>,
## #   valence <dbl>, pais <chr>, continente <chr>, `sub-continente` <chr>
…
## Selecting by qtd

 DT::datatable(resp03, class = 'cell-border stripe')

IV - Os Reis dos Quatro Cantos do Mundo

artis_pais_continente <-tocadas_musica_genero_pais_continente [,c('artista', 'pais', "continente")]
artis_pais_continente %>% arrange(artista)

## # A tibble: 2,474,727 x 3
##    artista                pais                      continente
##    <chr>                  <chr>                     <chr>     
##  1 「四分衛」樂團主唱阿山 Taiwan, Province of China Asia      
##  2 「四分衛」樂團主唱阿山 Taiwan, Province of China Asia      
##  3 「四分衛」樂團主唱阿山 Taiwan, Province of China Asia      
##  4 「四分衛」樂團主唱阿山 Taiwan, Province of China Asia      
##  5 「四分衛」樂團主唱阿山 Taiwan, Province of China Asia      
##  6 「四分衛」樂團主唱阿山 Taiwan, Province of China Asia      
##  7 「四分衛」樂團主唱阿山 Taiwan, Province of China Asia      
##  8 *NSYNC                 Italy                     Europe    
##  9 *NSYNC                 Italy                     Europe    
## 10 *NSYNC                 Italy                     Europe    
## # … with 2,474,717 more rows
…
